{"count":1968,"next":"https://api.octopus.energy/v1/electricity-meter-points/1460002141333/meters/20L3337311/consumption/?page=2","previous":null,"results":[{"consumption":0.04,"interval_start":"2021-12-26T23:30:00Z","interval_end":"2021-12-27T00:00:00Z"},{"consumption":0.02,"interval_start":"2021-12-26T23:00:00Z","interval_end":"2021-12-26T23:30:00Z"},{"consumption":0.069,"interval_start":"2021-12-26T22:30:00Z","interval_end":"2021-12-26T23:00:00Z"},{"consumption":0.121,"interval_start":"2021-12-26T22:00:00Z","interval_end":"2021-12-26T22:30:00Z"},{"consumption":0.113,"interval_start":"2021-12-26T21:30:00Z","interval_end":"2021-12-26T22:00:00Z"},{"consumption":0.079,"interval_start":"2021-12-26T21:00:00Z","interval_end":"2021-12-26T21:30:00Z"},{"consumption":0.724,"interval_start":"2021-12-26T20:30:00Z","interval_end":"2021-12-26T21:00:00Z"},{"consumption":0.096,"interval_start":"2021-12-26T20:00:00Z","interval_end":"2021-12-26T20:30:00Z"},{"consumption":0.365,"interval_start":"2021-12-26T19:30:00Z","interval_end":"2021-12-26T20:00:00Z"},{"consumption":0.908,"interval_start":"2021-12-26T19:00:00Z","interval_end":"2021-12-26T19:30:00Z"},{"consumption":1.506,"interval_start":"2021-12-26T18:30:00Z","interval_end":"2021-12-26T19:00:00Z"},{"consumption":1.358,"interval_start":"2021-12-26T18:00:00Z","interval_end":"2021-12-26T18:30:00Z"},{"consumption":0.407,"interval_start":"2021-12-26T17:30:00Z","interval_end":"2021-12-26T18:00:00Z"},{"consumption":0.115,"interval_start":"2021-12-26T17:00:00Z","interval_end":"2021-12-26T17:30:00Z"},{"consumption":0.474,"interval_start":"2021-12-26T16:30:00Z","interval_end":"2021-12-26T17:00:00Z"},{"consumption":0.142,"interval_start":"2021-12-26T16:00:00Z","interval_end":"2021-12-26T16:30:00Z"},{"consumption":0.113,"interval_start":"2021-12-26T15:30:00Z","interval_end":"2021-12-26T16:00:00Z"},{"consumption":0.256,"interval_start":"2021-12-26T15:00:00Z","interval_end":"2021-12-26T15:30:00Z"},{"consumption":0.54,"interval_start":"2021-12-26T14:30:00Z","interval_end":"2021-12-26T15:00:00Z"},{"consumption":0.346,"interval_start":"2021-12-26T14:00:00Z","interval_end":"2021-12-26T14:30:00Z"},{"consumption":0.126,"interval_start":"2021-12-26T13:30:00Z","interval_end":"2021-12-26T14:00:00Z"},{"consumption":0.179,"interval_start":"2021-12-26T13:00:00Z","interval_end":"2021-12-26T13:30:00Z"},{"consumption":0.109,"interval_start":"2021-12-26T12:30:00Z","interval_end":"2021-12-26T13:00:00Z"},{"consumption":0.117,"interval_start":"2021-12-26T12:00:00Z","interval_end":"2021-12-26T12:30:00Z"},{"consumption":0.276,"interval_start":"2021-12-26T11:30:00Z","interval_end":"2021-12-26T12:00:00Z"},{"consumption":0.045,"interval_start":"2021-12-26T11:00:00Z","interval_end":"2021-12-26T11:30:00Z"},{"consumption":0.012,"interval_start":"2021-12-26T10:30:00Z","interval_end":"2021-12-26T11:00:00Z"},{"consumption":0.039,"interval_start":"2021-12-26T10:00:00Z","interval_end":"2021-12-26T10:30:00Z"},{"consumption":0.012,"interval_start":"2021-12-26T09:30:00Z","interval_end":"2021-12-26T10:00:00Z"},{"consumption":0.012,"interval_start":"2021-12-26T09:00:00Z","interval_end":"2021-12-26T09:30:00Z"},{"consumption":0.012,"interval_start":"2021-12-26T08:30:00Z","interval_end":"2021-12-26T09:00:00Z"},{"consumption":0.021,"interval_start":"2021-12-26T08:00:00Z","interval_end":"2021-12-26T08:30:00Z"},{"consumption":0.031,"interval_start":"2021-12-26T07:30:00Z","interval_end":"2021-12-26T08:00:00Z"},{"consumption":0.012,"interval_start":"2021-12-26T07:00:00Z","interval_end":"2021-12-26T07:30:00Z"},{"consumption":0.012,"interval_start":"2021-12-26T06:30:00Z","interval_end":"2021-12-26T07:00:00Z"},{"consumption":0.012,"interval_start":"2021-12-26T06:00:00Z","interval_end":"2021-12-26T06:30:00Z"},{"consumption":0.831,"interval_start":"2021-12-26T05:30:00Z","interval_end":"2021-12-26T06:00:00Z"},{"consumption":1.595,"interval_start":"2021-12-26T05:00:00Z","interval_end":"2021-12-26T05:30:00Z"},{"consumption":1.58,"interval_start":"2021-12-26T04:30:00Z","interval_end":"2021-12-26T05:00:00Z"},{"consumption":0.012,"interval_start":"2021-12-26T04:00:00Z","interval_end":"2021-12-26T04:30:00Z"},{"consumption":0.026,"interval_start":"2021-12-26T03:30:00Z","interval_end":"2021-12-26T04:00:00Z"},{"consumption":0.027,"interval_start":"2021-12-26T03:00:00Z","interval_end":"2021-12-26T03:30:00Z"},{"consumption":0.012,"interval_start":"2021-12-26T02:30:00Z","interval_end":"2021-12-26T03:00:00Z"},{"consumption":0.013,"interval_start":"2021-12-26T02:00:00Z","interval_end":"2021-12-26T02:30:00Z"},{"consumption":0.026,"interval_start":"2021-12-26T01:30:00Z","interval_end":"2021-12-26T02:00:00Z"},{"consumption":0.029,"interval_start":"2021-12-26T01:00:00Z","interval_end":"2021-12-26T01:30:00Z"},{"consumption":0.014,"interval_start":"2021-12-26T00:30:00Z","interval_end":"2021-12-26T01:00:00Z"},{"consumption":0.014,"interval_start":"2021-12-26T00:00:00Z","interval_end":"2021-12-26T00:30:00Z"},{"consumption":0.037,"interval_start":"2021-12-25T23:30:00Z","interval_end":"2021-12-26T00:00:00Z"},{"consumption":0.025,"interval_start":"2021-12-25T23:00:00Z","interval_end":"2021-12-25T23:30:00Z"},{"consumption":0.015,"interval_start":"2021-12-25T22:30:00Z","interval_end":"2021-12-25T23:00:00Z"},{"consumption":0.071,"interval_start":"2021-12-25T22:00:00Z","interval_end":"2021-12-25T22:30:00Z"},{"consumption":0.041,"interval_start":"2021-12-25T21:30:00Z","interval_end":"2021-12-25T22:00:00Z"},{"consumption":0.026,"interval_start":"2021-12-25T21:00:00Z","interval_end":"2021-12-25T21:30:00Z"},{"consumption":0.037,"interval_start":"2021-12-25T20:30:00Z","interval_end":"2021-12-25T21:00:00Z"},{"consumption":0.252,"interval_start":"2021-12-25T20:00:00Z","interval_end":"2021-12-25T20:30:00Z"},{"consumption":2.106,"interval_start":"2021-12-25T19:30:00Z","interval_end":"2021-12-25T20:00:00Z"},{"consumption":2.187,"interval_start":"2021-12-25T19:00:00Z","interval_end":"2021-12-25T19:30:00Z"},{"consumption":0.291,"interval_start":"2021-12-25T18:30:00Z","interval_end":"2021-12-25T19:00:00Z"},{"consumption":1.096,"interval_start":"2021-12-25T18:00:00Z","interval_end":"2021-12-25T18:30:00Z"},{"consumption":0.402,"interval_start":"2021-12-25T17:30:00Z","interval_end":"2021-12-25T18:00:00Z"},{"consumption":0.155,"interval_start":"2021-12-25T17:00:00Z","interval_end":"2021-12-25T17:30:00Z"},{"consumption":0.092,"interval_start":"2021-12-25T16:30:00Z","interval_end":"2021-12-25T17:00:00Z"},{"consumption":0.486,"interval_start":"2021-12-25T16:00:00Z","interval_end":"2021-12-25T16:30:00Z"},{"consumption":0.102,"interval_start":"2021-12-25T15:30:00Z","interval_end":"2021-12-25T16:00:00Z"},{"consumption":0.634,"interval_start":"2021-12-25T15:00:00Z","interval_end":"2021-12-25T15:30:00Z"},{"consumption":0.438,"interval_start":"2021-12-25T14:30:00Z","interval_end":"2021-12-25T15:00:00Z"},{"consumption":0.114,"interval_start":"2021-12-25T14:00:00Z","interval_end":"2021-12-25T14:30:00Z"},{"consumption":0.109,"interval_start":"2021-12-25T13:30:00Z","interval_end":"2021-12-25T14:00:00Z"},{"consumption":0.219,"interval_start":"2021-12-25T13:00:00Z","interval_end":"2021-12-25T13:30:00Z"},{"consumption":0.148,"interval_start":"2021-12-25T12:30:00Z","interval_end":"2021-12-25T13:00:00Z"},{"consumption":0.308,"interval_start":"2021-12-25T12:00:00Z","interval_end":"2021-12-25T12:30:00Z"},{"consumption":0.58,"interval_start":"2021-12-25T11:30:00Z","interval_end":"2021-12-25T12:00:00Z"},{"consumption":0.047,"interval_start":"2021-12-25T11:00:00Z","interval_end":"2021-12-25T11:30:00Z"},{"consumption":0.029,"interval_start":"2021-12-25T10:30:00Z","interval_end":"2021-12-25T11:00:00Z"},{"consumption":0.051,"interval_start":"2021-12-25T10:00:00Z","interval_end":"2021-12-25T10:30:00Z"},{"consumption":0.024,"interval_start":"2021-12-25T09:30:00Z","interval_end":"2021-12-25T10:00:00Z"},{"consumption":0.018,"interval_start":"2021-12-25T09:00:00Z","interval_end":"2021-12-25T09:30:00Z"},{"consumption":0.018,"interval_start":"2021-12-25T08:30:00Z","interval_end":"2021-12-25T09:00:00Z"},{"consumption":0.018,"interval_start":"2021-12-25T08:00:00Z","interval_end":"2021-12-25T08:30:00Z"},{"consumption":0.019,"interval_start":"2021-12-25T07:30:00Z","interval_end":"2021-12-25T08:00:00Z"},{"consumption":0.049,"interval_start":"2021-12-25T07:00:00Z","interval_end":"2021-12-25T07:30:00Z"},{"consumption":0.043,"interval_start":"2021-12-25T06:30:00Z","interval_end":"2021-12-25T07:00:00Z"},{"consumption":0.018,"interval_start":"2021-12-25T06:00:00Z","interval_end":"2021-12-25T06:30:00Z"},{"consumption":0.424,"interval_start":"2021-12-25T05:30:00Z","interval_end":"2021-12-25T06:00:00Z"},{"consumption":1.127,"interval_start":"2021-12-25T05:00:00Z","interval_end":"2021-12-25T05:30:00Z"},{"consumption":1.576,"interval_start":"2021-12-25T04:30:00Z","interval_end":"2021-12-25T05:00:00Z"},{"consumption":0.037,"interval_start":"2021-12-25T04:00:00Z","interval_end":"2021-12-25T04:30:00Z"},{"consumption":0.051,"interval_start":"2021-12-25T03:30:00Z","interval_end":"2021-12-25T04:00:00Z"},{"consumption":0.033,"interval_start":"2021-12-25T03:00:00Z","interval_end":"2021-12-25T03:30:00Z"},{"consumption":0.018,"interval_start":"2021-12-25T02:30:00Z","interval_end":"2021-12-25T03:00:00Z"},{"consumption":0.019,"interval_start":"2021-12-25T02:00:00Z","interval_end":"2021-12-25T02:30:00Z"},{"consumption":0.018,"interval_start":"2021-12-25T01:30:00Z","interval_end":"2021-12-25T02:00:00Z"},{"consumption":0.024,"interval_start":"2021-12-25T01:00:00Z","interval_end":"2021-12-25T01:30:00Z"},{"consumption":0.051,"interval_start":"2021-12-25T00:30:00Z","interval_end":"2021-12-25T01:00:00Z"},{"consumption":0.052,"interval_start":"2021-12-25T00:00:00Z","interval_end":"2021-12-25T00:30:00Z"},{"consumption":0.033,"interval_start":"2021-12-24T23:30:00Z","interval_end":"2021-12-25T00:00:00Z"},{"consumption":0.112,"interval_start":"2021-12-24T23:00:00Z","interval_end":"2021-12-24T23:30:00Z"},{"consumption":0.12,"interval_start":"2021-12-24T22:30:00Z","interval_end":"2021-12-24T23:00:00Z"},{"consumption":0.11,"interval_start":"2021-12-24T22:00:00Z","interval_end":"2021-12-24T22:30:00Z"}]}